<svg width="12" height="12" viewBox="0 0 12 12" fill="none" xmlns="http://www.w3.org/2000/svg">
<rect width="12" height="12" fill="#616161"/>
<g filter="url(#filter0_d_2_1586)">
<rect width="360" height="617.165" rx="11.4282" transform="matrix(1 0.000377775 -0.000383566 1 -296.764 -70)" fill="white"/>
</g>
<g filter="url(#filter1_b_2_1586)">
<rect width="360" height="617.165" rx="11.4282" transform="matrix(1 0.000377775 -0.000383566 1 -297 -70.4355)" fill="black" fill-opacity="0.2"/>
</g>
<g filter="url(#filter2_d_2_1586)">
<g clip-path="url(#clip0_2_1586)">
<rect x="-297" y="-70" width="360" height="472" rx="11.4282" fill="white"/>
<rect x="-73.1309" y="-6" width="93" height="24" rx="4" fill="#1293F5" fill-opacity="0.1"/>
<g clip-path="url(#clip1_2_1586)">
<path d="M5.86914 11C8.63056 11 10.8691 8.76142 10.8691 6C10.8691 3.23858 8.63056 1 5.86914 1C3.10772 1 0.869141 3.23858 0.869141 6C0.869141 8.76142 3.10772 11 5.86914 11Z" stroke="#1293F5" stroke-linecap="round" stroke-linejoin="round"/>
<path d="M5.86914 4V8" stroke="#1293F5" stroke-linecap="round" stroke-linejoin="round"/>
<path d="M3.86914 6H7.86914" stroke="#1293F5" stroke-linecap="round" stroke-linejoin="round"/>
</g>
</g>
</g>
<defs>
<filter id="filter0_d_2_1586" x="-363.661" y="-108.09" width="474.51" height="731.575" filterUnits="userSpaceOnUse" color-interpolation-filters="sRGB">
<feFlood flood-opacity="0" result="BackgroundImageFix"/>
<feColorMatrix in="SourceAlpha" type="matrix" values="0 0 0 0 0 0 0 0 0 0 0 0 0 0 0 0 0 0 127 0" result="hardAlpha"/>
<feOffset dx="-9.5235" dy="19.047"/>
<feGaussianBlur stdDeviation="28.5705"/>
<feComposite in2="hardAlpha" operator="out"/>
<feColorMatrix type="matrix" values="0 0 0 0 0 0 0 0 0 0 0 0 0 0 0 0 0 0 0.1 0"/>
<feBlend mode="normal" in2="BackgroundImageFix" result="effect1_dropShadow_2_1586"/>
<feBlend mode="normal" in="SourceGraphic" in2="effect1_dropShadow_2_1586" result="shape"/>
</filter>
<filter id="filter1_b_2_1586" x="-307.232" y="-80.4316" width="380.228" height="637.293" filterUnits="userSpaceOnUse" color-interpolation-filters="sRGB">
<feFlood flood-opacity="0" result="BackgroundImageFix"/>
<feGaussianBlur in="BackgroundImageFix" stdDeviation="5"/>
<feComposite in2="SourceAlpha" operator="in" result="effect1_backgroundBlur_2_1586"/>
<feBlend mode="normal" in="SourceGraphic" in2="effect1_backgroundBlur_2_1586" result="shape"/>
</filter>
<filter id="filter2_d_2_1586" x="-363.665" y="-108.094" width="474.282" height="586.282" filterUnits="userSpaceOnUse" color-interpolation-filters="sRGB">
<feFlood flood-opacity="0" result="BackgroundImageFix"/>
<feColorMatrix in="SourceAlpha" type="matrix" values="0 0 0 0 0 0 0 0 0 0 0 0 0 0 0 0 0 0 127 0" result="hardAlpha"/>
<feOffset dx="-9.5235" dy="19.047"/>
<feGaussianBlur stdDeviation="28.5705"/>
<feComposite in2="hardAlpha" operator="out"/>
<feColorMatrix type="matrix" values="0 0 0 0 0 0 0 0 0 0 0 0 0 0 0 0 0 0 0.1 0"/>
<feBlend mode="normal" in2="BackgroundImageFix" result="effect1_dropShadow_2_1586"/>
<feBlend mode="normal" in="SourceGraphic" in2="effect1_dropShadow_2_1586" result="shape"/>
</filter>
<clipPath id="clip0_2_1586">
<rect x="-297" y="-70" width="360" height="472" rx="11.4282" fill="white"/>
</clipPath>
<clipPath id="clip1_2_1586">
<rect width="12" height="12" fill="white" transform="translate(-0.130859)"/>
</clipPath>
</defs>
</svg>
