<svg width="15" height="8" viewBox="0 0 15 8" fill="none" xmlns="http://www.w3.org/2000/svg">
<path d="M14.7213 2.14752L8.20249 7.68293C7.88831 7.95009 7.42377 7.95009 7.10959 7.68293L0.59082 2.14752L1.68456 0.883301L7.65646 5.95514L13.6275 0.884133L14.7213 2.14752Z" fill="#818181"/>
</svg>
