<svg width="15" height="15" viewBox="0 0 15 15" fill="none"
    xmlns="http://www.w3.org/2000/svg">
    <g id="send" clip-path="url(#clip0_3943_16531)">
        <path id="Vector" d="M10.6925 4.70752L5.4425 9.95752" stroke="#18171D"/>
        <path id="Vector_2" d="M6.60925 4.70752H10.6926V8.79085" stroke="#18171D" stroke-linecap="square"/>
    </g>
    <defs>
        <clipPath id="clip0_3943_16531">
            <rect width="14" height="14" fill="white" transform="translate(0.775879 0.0410156)"/>
        </clipPath>
    </defs>
</svg>
