<svg xmlns="http://www.w3.org/2000/svg" width="14" height="14" fill="none" viewBox="0 0 14 14">
  <path fill="#2AAA37" d="M0 7a7 7 0 1 1 14 0A7 7 0 1 1 0 7Z"/>
  <path fill="#fff" d="m4.013 6.81 1.88 1.908 4.388-4.454a.877.877 0 0 1 1.253 0 .91.91 0 0 1 0 1.272L6.52 10.628a.877.877 0 0 1-1.253 0L2.76 8.082a.91.91 0 0 1 0-1.273.877.877 0 0 1 1.253 0Z"/>
</svg>