{
   "apps_api": [
    ],
   "apps_blacklist": [
	],
   "apps_promo_list": [
    "https://music.yandex.ua/*",
    "https://translate.yandex.ua/*",
    "https://yandex.ua/q/*"
    ],
   "apps_store": [ {
      "apps": [ {
         "scope": "https://mail.yandex.ua/"
      }, {
         "scope": "https://calendar.yandex.ua/"
      }, {
         "scope": "https://translate.yandex.ua/"
      },{
         "scope": "https://disk.yandex.ua/"
      },{
         "scope": "https://yandex.ua/maps/"
      }, {
         "scope": "https://taxi.yandex.ua/"
      }, {
         "scope": "https://music.yandex.ua/"
      }, {
         "scope": "https://yandex.ua/pogoda/"
      }, {
         "scope": "https://yandex.ua/uslugi/"
      }, {
         "scope": "https://yandex.ua/q/"
      }, {
         "scope": "https://market.yandex.ua/"
      }  ],
      "name": "Приложения Яндекса"
   }, {
      "apps": [ {
         "scope": "https://web.whatsapp.com/"
      }, {
         "scope": "https://web.telegram.org/"
      }, {
         "scope": "https://www.messenger.com/"
      }, {
         "scope": "https://web.skype.com/"
      }, {
         "scope": "https://discord.com/"
      }, {
         "scope": "https://slack.com/"
      }  ],
      "name": "Мессенджеры"
   }, {
      "apps": [ {
         "scope": "https://twitter.com/"
      }, {
         "scope": "https://www.tiktok.com/"
      }, {
         "scope": "https://www.youtube.com/"
      }, {
         "scope": "https://www.pinterest.com/"
      }  ],
      "name": "Социальные сети"
   }, {
      "apps": [ {
         "scope": "https://docs.google.com/"
      }, {
         "scope": "https://drive.google.com/"
      }, {
         "scope": "https://mail.google.com/"
      }, {
         "scope": "https://www.office.com/"
      }, {
         "scope": "https://www.icloud.com/"
      }, {
         "scope": "https://www.figma.com/"
      }  ],
      "name": "Производительность"
   }, {
      "apps": [ {
         "scope": "https://yandex.ua/games/"
      }, {
         "scope": "https://store.steampowered.com/"
      }, {
         "scope": "https://www.twitch.tv/"
      }, {
         "scope": "https://music.yandex.ua/"
      }, {
         "scope": "https://open.spotify.com/"
      } ],
      "name": "Развлечения"
   }  ],
   "default_apps": [ {
      "install": "all",
      "scope": "https://mail.yandex.ua/"
   } ]
}
